{
  "version" : "116",
  "label" : "VHMaVi",
  "services" : [
    {
      "type" : "apache",
      "config" : {
        "id" : "8DB4",
        "user_and_group" : "current",
        "build_order" : 50,
        "requested_version" : "2.4",
        "label" : "Apache server service",
        "display_order" : 999,
        "sites" : [
          {
            "domain" : "vhmavi.localhost",
            "id" : "8478",
            "ssl_port" : "auto",
            "linked_php" : "9F5B",
            "non_ssl_port" : "auto",
            "reverse_proxy_http" : [
              {
                "frontend_ssl_port" : "auto",
                "backend_using_ssl" : true,
                "frontend_port" : "auto",
                "domains" : [
                  "vhmavi.localhost"
                ]
              }
            ],
            "template" : "generic"
          }
        ]
      }
    },
    {
      "type" : "php",
      "config" : {
        "port" : "auto",
        "id" : "9F5B",
        "user_and_group" : "current",
        "requested_version" : "8.2",
        "build_order" : 10,
        "label" : "PHP service",
        "display_order" : 999
      }
    }
  ],
  "uuid" : "8B8050"
}